…
\[recovery\_per\_capita\] = \[recovery\] / \[population\]

``` r
la_population <- la_population %>% select(-county)
la_population <- la_population %>% mutate(fips = as.character(fips))

left_join(lousiana, la_population) %>%
  mutate(mitigation_per_capita = mitigation / population) %>%
  mutate(recovery_per_capita = recovery / population)
```

    ## Joining, by = "fips"

    ## # A tibble: 64 x 14
    ## # Groups:   fips [64]
    ##    fips  county   mitigation  recovery     hmgp   pdm     fma       pa cdbg_2005
    ##    <chr> <chr>         <dbl>     <dbl>    <dbl> <dbl>   <dbl>    <dbl>     <dbl>
    ##  1 22001 Acadia    25120424.    1.38e8   2.51e7     0  0        1.31e8    7.79e6
    ##  2 22003 Allen     23250651.    1.15e8   2.33e7     0  0        1.11e8    3.74e6
    ##  3 22005 Ascensi…  39074430.    2.70e8   3.87e7     0  3.50e5   2.42e8    2.80e7
    ##  4 22007 Assumpt…  28095843.    1.49e8   2.81e7     0  0        1.15e8    3.45e7
    ##  5 22009 Avoyell…  22862432.    1.19e8   2.29e7     0  0        1.13e8    5.97e6
    ##  6 22011 Beaureg…  23571057.    1.16e8   2.36e7     0  0        1.13e8    3.06e6
    ##  7 22013 Bienvil…  21840748.    1.09e8   2.18e7 57620  0        1.07e8    2.40e6
    ##  8 22015 Bossier   32150474.    1.61e8   3.11e7     0  1.07e6   1.61e8    0     
    ##  9 22017 Caddo     29422280.    1.19e8   2.94e7     0  0        1.19e8    0     
    ## 10 22019 Calcasi…  55444242.    3.59e8   5.30e7     0  2.48e6   2.73e8    3.04e8
    ## # … with 54 more rows, and 5 more variables: cdbg_2006 <dbl>, ia <dbl>,
    ## #   population <dbl>, mitigation_per_capita <dbl>, recovery_per_capita <dbl>
